id layer minTurns estimate turn parentId child[] items=1319 alg=AvgMastermind5
    0 0 5 5626   12     0  1 2 3 4 5 6 7 8 9 0 10 11 12 0 0 13
    1 1 5  327 3345     0  0 0 14 15 16 17 18 19 20 0 21 22 23 0 0 24
    2 1 5 1251 1334     0  25 26 27 28 29 30 31 32 33 0 34 35 36 0 0 37
    3 1 5  994 1323     0  38 39 40 41 42 43 44 45 46 0 47 48 49 0 0 50
    4 1 5  171 1340     0  0 0 51 52 0 53 54 55 0 0 56 57 0 0 0 58
    5 1 5    5 1200     0  0 0 0 0 0 0 0 0 0 0 0 0 59 0 0 0
    6 1 5  800  334     0  60 61 62 63 64 65 66 67 68 0 69 70 71 0 0 72
    7 1 5 1029  304     0  73 74 75 76 77 78 79 80 81 0 82 83 84 0 0 85
    8 1 5  347  324     0  0 86 87 88 0 89 90 91 0 0 92 93 0 0 0 94
    9 1 5   11  120     0  0 0 0 0 95 0 0 0 96 0 0 0 97 0 0 0
   10 1 5  445  134     0  0 98 99 100 101 102 103 104 105 0 106 107 108 0 0 109
   11 1 5  154 3402     0  0 110 111 112 0 113 114 115 0 0 116 117 0 0 0 118
   12 1 5   15  102     0  0 0 0 0 119 0 0 0 120 0 0 0 121 0 0 0
   13 1 5   76 1342     0  0 122 123 0 0 124 125 126 0 0 127 128 0 0 0 0
   14 2 5   24 4434     1  0 129 0 0 0 130 0 0 0 0 131 0 0 0 0 132
   15 2 5   32 4534     1  0 0 0 133 0 0 0 0 134 0 135 136 137 0 0 138
   16 2 5    7 4533     1  0 0 0 0 0 0 0 0 0 0 0 0 139 0 0 0
   17 2 5    7 4444     1  140 0 0 0 0 0 0 0 0 0 0 0 0 0 0 0
   18 2 5   31 4544     1  0 0 141 0 0 142 0 143 0 0 144 145 146 0 0 147
   19 2 5   78 3454     1  0 0 148 149 150 0 151 152 153 0 154 155 156 0 0 157
   20 2 5   15 3453     1  0 0 0 0 158 0 0 0 159 0 0 0 160 0 0 0
   21 2 5   37 3444     1  0 161 0 0 0 162 163 0 0 0 164 165 166 0 0 0
   22 2 5   41 3455     1  0 0 167 168 0 0 169 170 0 0 171 172 173 0 0 0
   23 2 5   20 3435     1  0 0 0 0 174 0 0 0 175 0 0 0 176 0 0 0
   24 2 5   33 5354     1  0 0 0 177 178 0 179 180 0 0 181 182 183 0 0 0
   25 2 5   37 5505     2  0 0 0 0 0 184 185 0 0 0 186 187 188 0 0 189
   26 2 5  176 2253     2  190 191 192 193 0 194 195 196 197 0 198 199 200 0 0 201
   27 2 5  195 4155     2  202 203 204 205 206 207 208 209 210 0 211 212 213 0 0 214
   28 2 5   50 3451     2  0 0 0 215 216 0 217 0 218 0 219 220 221 0 0 222
   29 2 5    3 3143     2 
   30 2 5  167 2535     2  223 224 225 226 0 227 228 229 230 0 231 232 233 0 0 234
   31 2 5  241 1455     2  235 236 237 238 0 239 240 241 242 0 243 244 245 0 0 246
   32 2 5  123 1453     2  0 0 247 248 249 0 250 251 252 0 253 254 255 0 0 256
   33 2 5   11 3341     2  0 0 0 0 257 0 0 0 0 0 0 0 258 0 0 0
   34 2 5  128 4325     2  0 259 260 261 262 263 264 265 266 0 267 268 269 0 0 270
   35 2 5   65 1345     2  0 0 271 272 273 0 274 275 0 0 0 276 277 0 0 278
   36 2 5   15 1343     2  0 0 0 0 279 0 0 0 280 0 0 0 281 0 0 0
   37 2 5   38 5531     2  0 0 282 283 0 284 285 286 0 0 287 288 0 0 0 0
   38 2 5   16 4400     3  0 0 0 0 0 0 0 0 0 0 289 0 0 0 0 290
   39 2 5  167 2440     3  0 291 292 293 294 295 296 297 0 0 298 299 300 0 0 301
   40 2 5  156 2430     3  0 302 303 304 305 306 307 308 309 0 310 311 312 0 0 313
   41 2 5   49 2134     3  0 0 0 314 315 0 316 317 318 0 319 320 321 0 0 322
   42 2 5    3 3231     3 
   43 2 5  118 1405     3  0 323 324 325 0 0 326 327 328 0 329 330 331 0 0 332
   44 2 5  207 2124     3  333 334 335 336 0 337 338 339 340 0 341 342 343 0 0 344
   45 2 5   73 3124     3  0 0 345 346 347 0 348 349 350 0 351 352 353 0 0 354
   46 2 5    7 2133     3  0 0 0 0 0 0 0 0 0 0 0 0 355 0 0 0
   47 2 5  105 5124     3  0 356 357 0 0 358 359 360 361 0 362 363 364 0 0 365
   48 2 5   46 1243     3  0 0 366 367 368 0 369 370 371 0 0 0 0 0 0 372
   49 2 5   11 1233     3  0 0 0 0 373 0 0 0 374 0 0 0 0 0 0 0
   50 2 5   34 5423     3  0 0 0 0 0 375 376 377 0 0 378 379 0 0 0 380
   51 2 5   19 2105     4  0 0 0 0 0 0 0 0 381 0 0 382 383 0 0 384
   52 2 5   19 2103     4  0 0 0 0 0 0 0 385 386 0 0 387 0 0 0 388
   53 2 5   11 2500     4  0 0 0 0 0 0 0 0 0 0 0 0 389 0 0 390
   54 2 5   36 2150     4  0 0 0 391 392 0 393 0 0 0 394 395 396 0 0 397
   55 2 5   32 1203     4  0 0 0 398 399 0 400 401 402 0 0 0 0 0 0 403
   56 2 5   28 1250     4  0 0 0 0 0 0 404 0 0 0 405 406 407 0 0 408
   57 2 5   15 1230     4  0 0 0 0 0 0 0 409 0 0 410 411 0 0 0 0
   58 2 5   11 1240     4  0 0 0 0 0 0 0 0 0 0 412 413 0 0 0 0
   59 2 5    3 2100     5 
   60 2 5   69 1515     6  414 415 416 0 0 417 418 419 0 0 420 0 421 0 0 422
   61 2 5  198 5452     6  423 424 425 426 0 427 428 429 0 0 430 431 432 0 0 433
   62 2 5   84 3452     6  0 0 434 435 0 436 437 438 0 0 439 440 441 0 0 442
   63 2 5   24 3045     6  0 0 0 0 0 0 443 0 444 0 0 445 446 0 0 0
   64 2 5    3 3043     6 
   65 2 5   99 1514     6  447 448 0 0 0 449 450 451 0 0 452 453 454 0 0 455
   66 2 5  152  455     6  456 457 458 459 0 460 461 462 463 0 0 464 465 0 0 466
   67 2 5   49 3054     6  0 0 467 468 469 0 470 471 472 0 473 474 0 0 0 475
   68 2 5    3 4033     6 
   69 2 5   50 4504     6  476 477 478 0 0 479 480 481 482 0 483 484 485 0 0 0
   70 2 5   32  345     6  0 0 0 486 487 0 488 489 0 0 0 490 491 0 0 0
   71 2 5   11  343     6  0 0 0 0 492 0 0 0 0 0 0 0 493 0 0 0
   72 2 5   24  344     6  0 0 0 0 0 0 0 0 0 0 494 495 496 0 0 497
   73 2 5   88 1552     7  0 0 498 499 500 0 501 502 503 0 504 505 506 0 0 507
   74 2 5  191 3122     7  0 508 509 510 511 512 513 514 515 0 516 517 518 0 0 519
   75 2 5  157 5041     7  0 0 520 521 522 523 524 525 526 0 527 528 529 0 0 530
   76 2 5   51 1043     7  0 0 0 0 531 0 532 0 533 0 534 535 536 0 0 537
   77 2 5    7 3040     7  0 0 0 0 0 0 0 0 0 0 0 0 538 0 0 0
   78 2 5  103 2502     7  0 539 540 541 542 543 544 545 0 0 546 0 547 0 0 548
   79 2 5  184  145     7  0 549 550 551 552 553 554 555 556 0 557 558 559 0 0 560
   80 2 5   84  450     7  0 0 561 562 563 0 564 565 0 0 566 567 568 0 0 569
   81 2 5    7  430     7  0 0 0 0 570 0 0 0 0 0 0 0 0 0 0 0
   82 2 5   74  254     7  0 0 571 572 0 573 574 575 0 0 576 577 578 0 0 579
   83 2 5   46  350     7  0 0 580 581 0 0 582 583 584 0 585 0 0 0 0 586
   84 2 5   11  340     7  0 0 0 0 587 0 0 0 588 0 0 0 0 0 0 0
   85 2 5   24 5420     7  0 589 590 591 0 592 593 594 0 0 0 0 0 0 0 0
   86 2 5   19 1050     8  0 0 0 0 0 0 0 0 595 0 0 596 597 0 0 598
   87 2 5   83 2510     8  0 0 599 600 601 0 602 603 604 0 605 606 607 0 0 608
   88 2 5   45 2410     8  0 0 0 609 610 0 611 612 613 0 614 615 616 0 0 0
   89 2 5   19  150     8  0 0 0 0 0 0 0 0 617 0 0 618 619 0 0 620
   90 2 5   64  205     8  0 0 621 622 623 0 624 625 0 0 626 627 628 0 0 629
   91 2 5   54  240     8  0 0 630 631 632 0 633 634 635 0 636 637 0 0 0 638
   92 2 5   33  125     8  0 0 0 0 0 0 639 0 0 0 640 641 642 0 0 643
   93 2 5   19  123     8  0 0 0 0 0 0 644 645 0 0 646 647 0 0 0 0
   94 2 5   11  124     8  0 0 0 0 0 0 0 0 0 0 648 649 0 0 0 0
   95 2 5    3 2001     9 
   96 2 5    3  201     9 
   97 2 5    3 1020     9 
   98 2 5   41 2550    10  0 650 651 652 0 653 654 655 656 0 657 658 0 0 0 0
   99 2 5  104 2415    10  0 659 660 661 0 662 663 664 665 0 666 667 668 0 0 669
  100 2 5   42 3425    10  0 670 671 672 0 673 674 675 0 0 676 677 0 0 0 0
  101 2 5    3 4013    10 
  102 2 5   46   50    10  678 679 0 0 0 680 681 0 0 0 682 0 683 0 0 684
  103 2 5   79  425    10  0 685 686 687 0 688 689 690 691 0 692 693 694 0 0 695
  104 2 5   51  415    10  0 0 696 0 0 0 697 698 699 0 700 701 0 0 0 702
  105 2 5    7  413    10  0 0 0 0 0 0 0 0 703 0 0 0 0 0 0 0
  106 2 5   47 5033    10  0 704 705 0 0 706 707 708 0 0 709 710 0 0 0 711
  107 2 5   15  514    10  0 0 0 0 0 0 712 0 0 0 713 0 0 0 0 714
  108 2 5    3  314    10 
  109 2 5    7   34    10  0 0 0 0 0 0 0 0 0 0 715 0 0 0 0 0
  110 2 5   19  110    11  0 0 0 0 0 0 0 716 0 0 0 717 718 0 0 719
  111 2 5   42  215    11  0 0 0 0 0 0 720 721 0 0 722 723 724 0 0 725
  112 2 5   23  213    11  0 0 0 0 0 0 726 727 0 0 0 728 729 0 0 730
  113 2 5    3    1    11 
  114 2 5   23  122    11  0 0 731 0 0 0 732 733 0 0 0 0 734 0 0 735
  115 2 5   15  132    11  0 0 0 0 0 0 0 736 0 0 0 0 737 0 0 738
  116 2 5   15  202    11  0 0 0 0 0 0 0 0 0 0 0 739 740 0 0 741
  117 2 5    7  302    11  0 0 0 0 0 0 0 0 0 0 0 742 0 0 0 0
  118 2 5    7  402    11  0 0 0 0 0 0 0 0 0 0 0 743 0 0 0 0
  119 2 5    3 2010    12 
  120 2 5    7   21    12  0 0 0 0 0 0 0 0 744 0 0 0 0 0 0 0
  121 2 5    3 1002    12 
  122 2 5   12   10    13  0 0 0 0 0 0 0 0 0 0 0 0 0 0 0 745
  123 2 5    7   13    13  0 0 0 0 0 0 0 0 0 0 0 0 0 0 0 746
  124 2 5   12    2    13  0 0 0 0 0 0 0 0 0 0 0 0 0 0 0 747
  125 2 5   24  212    13  0 0 0 0 0 0 0 0 0 0 748 749 750 0 0 751
  126 2 5   11  412    13  0 0 0 0 0 0 0 0 0 0 0 752 753 0 0 0
  127 2 5    7   42    13  0 0 0 0 0 0 0 0 0 0 754 0 0 0 0 0
  128 2 5    3  312    13 
  129 3 5    4 5553    14 
  130 3 5    4 5554    14 
  131 3 5    9 4554    14  0 0 0 0 0 0 0 0 0 0 0 0 755 0 0 0
  132 3 5    4 4454    14 
  133 3 5    4 5453    15 
  134 3 5    4 4453    15 
  135 3 5    4 5533    15 
  136 3 5    9 4433    15  0 0 0 0 0 0 0 0 0 0 756 0 0 0 0 0
  137 3 5    4 5434    15 
  138 3 5    4 5534    15 
  139 3 5    4 5433    16 
  140 3 5    4 5555    17 
  141 3 5    4 5455    18 
  142 3 5    4 5535    18 
  143 3 5    4 4455    18 
  144 3 5    4 4555    18 
  145 3 5    4 4443    18 
  146 3 5    4 5444    18 
  147 3 5    4 5544    18 
  148 3 5    9 4333    19  0 0 0 0 0 0 0 0 0 0 0 0 0 0 0 757
  149 3 5    9 4535    19  0 0 0 0 0 0 0 0 758 0 0 0 0 0 0 0
  150 3 5    4 4543    19 
  151 3 5    9 3533    19  0 0 0 0 0 0 0 759 0 0 0 0 0 0 0 0
  152 3 5    9 4334    19  0 0 0 0 0 0 760 0 0 0 0 0 0 0 0 0
  153 3 5    9 4435    19  0 0 0 0 0 0 0 0 761 0 0 0 0 0 0 0
  154 3 5    9 3433    19  0 0 0 0 0 0 0 0 0 0 762 0 0 0 0 0
  155 3 5    4 5354    19 
  156 3 5    4 4354    19 
  157 3 5    9 3434    19  0 0 0 0 0 0 0 0 0 0 763 0 0 0 0 0
  158 3 5    4 5334    20 
  159 3 5    4 3534    20 
  160 3 5    4 4353    20 
  161 3 5    4 5355    21 
  162 3 5   14 3333    21  764 0 0 0 0 765 0 0 0 0 0 0 0 0 0 0
  163 3 5    4 4545    21 
  164 3 5    4 5445    21 
  165 3 5    4 4445    21 
  166 3 5    4 4344    21 
  167 3 5    4 4343    22 
  168 3 5    4 5344    22 
  169 3 5    4 3334    22 
  170 3 5    9 3544    22  0 0 766 0 0 0 0 0 0 0 0 0 0 0 0 0
  171 3 5    9 3353    22  0 0 0 0 0 0 0 0 0 0 767 0 0 0 0 0
  172 3 5    4 3535    22 
  173 3 5    4 4355    22 
  174 3 5    4 5343    23 
  175 3 5    9 3354    23  0 0 0 0 0 0 0 0 768 0 0 0 0 0 0 0
  176 3 5    4 4335    23 
  177 3 5    4 3445    24 
  178 3 5    4 3545    24 
  179 3 5    9 3335    24  0 0 0 0 0 0 0 0 0 0 0 769 0 0 0 0
  180 3 5    4 4345    24 
  181 3 5    4 3344    24 
  182 3 5    4 3355    24 
  183 3 5    4 5345    24 
  184 3 5    4 2225    25 
  185 3 5    4 2255    25 
  186 3 5    9 2525    25  0 0 0 0 0 0 0 0 0 0 0 0 770 0 0 0
  187 3 5    9 2555    25  0 0 0 0 0 0 0 0 0 0 0 0 771 0 0 0
  188 3 5    4 5550    25 
  189 3 5    4 5525    25 
  190 3 5    4 4440    26 
  191 3 5   29 4505    26  0 0 0 772 0 0 0 0 773 0 0 774 775 0 0 776
  192 3 5   19 3505    26  0 0 0 0 0 777 778 0 0 0 779 0 0 0 0 0
  193 3 5    4 3525    26 
  194 3 5   29 5155    26  0 0 0 0 0 780 781 0 0 0 782 0 783 0 0 784
  195 3 5   29 5245    26  0 0 785 0 0 0 786 0 0 0 0 787 788 0 0 789
  196 3 5   14 2425    26  0 0 0 0 0 0 790 0 0 0 0 0 791 0 0 0
  197 3 5    4 3225    26 
  198 3 5    9 2455    26  0 0 0 0 0 0 0 0 0 0 0 0 792 0 0 0
  199 3 5    9 2245    26  0 0 0 0 0 0 0 0 0 0 793 0 0 0 0 0
  200 3 5    9 2523    26  0 0 0 0 0 0 0 0 0 0 0 0 794 0 0 0
  201 3 5   14 2553    26  0 0 0 0 0 0 0 0 0 0 795 0 796 0 0 0
  202 3 5    4 3223    27 
  203 3 5   29 2423    27  0 0 0 0 0 797 798 0 0 0 799 0 800 0 0 801
  204 3 5   24 2543    27  0 0 0 0 0 0 0 802 803 0 0 804 805 0 0 0
  205 3 5    4 5441    27 
  206 3 5    4 5541    27 
  207 3 5   24 4243    27  0 0 0 0 0 0 0 0 0 0 806 807 808 0 0 809
  208 3 5   39 3405    27  0 0 0 810 0 811 0 812 813 0 0 814 815 0 0 816
  209 3 5   14 3551    27  0 0 0 0 0 0 817 0 0 0 818 0 0 0 0 0
  210 3 5    4 5451    27 
  211 3 5   14 3151    27  0 0 0 0 0 0 819 0 0 0 820 0 0 0 0 0
  212 3 5    9 4451    27  0 0 0 0 0 0 821 0 0 0 0 0 0 0 0 0
  213 3 5    9 4551    27  0 0 0 0 822 0 0 0 0 0 0 0 0 0 0 0
  214 3 5   14 4145    27  0 0 0 0 0 0 0 0 0 0 823 824 0 0 0 0
  215 3 5    4 4143    28 
  216 3 5    4 5143    28 
  217 3 5    4 3243    28 
  218 3 5    9 3145    28  0 0 0 0 0 0 0 0 825 0 0 0 0 0 0 0
  219 3 5    9 3403    28  0 0 0 0 0 0 0 0 0 0 0 0 0 0 0 826
  220 3 5    9 3141    28  0 0 0 0 0 0 0 0 0 0 827 0 0 0 0 0
  221 3 5    4 3541    28 
  222 3 5    4 3441    28 
  223 3 5    4 4404    30 
  224 3 5   24 4244    30  828 0 0 0 0 0 829 0 0 0 0 0 830 0 0 831
  225 3 5   19 4254    30  0 0 0 0 0 0 0 0 832 0 0 833 834 0 0 0
  226 3 5    9 5254    30  0 0 0 0 0 0 0 0 0 0 835 0 0 0 0 0
  227 3 5   25 5422    30  0 0 836 837 0 0 838 839 0 0 0 840 0 0 0 0
  228 3 5   29 4524    30  0 841 0 0 0 842 0 843 844 0 845 0 0 0 0 0
  229 3 5    9 5305    30  0 0 0 0 0 0 846 0 0 0 0 0 0 0 0 0
  230 3 5    4 5325    30 
  231 3 5   14 2524    30  0 0 0 0 0 847 0 0 0 0 0 0 0 0 0 848
  232 3 5   14 2325    30  0 0 849 0 0 0 850 0 0 0 0 0 0 0 0 0
  233 3 5    9 2355    30  0 0 0 0 0 0 0 0 851 0 0 0 0 0 0 0
  234 3 5    4 2235    30 
  235 3 5   24 2233    31  0 0 0 0 0 0 852 853 0 0 0 0 854 0 0 855
  236 3 5   39 5323    31  0 0 856 857 0 858 859 0 860 0 0 0 861 0 0 862
  237 3 5   29 3504    31  0 0 863 0 864 865 0 0 866 0 0 0 0 0 0 867
  238 3 5    9 5144    31  0 0 0 0 0 0 868 0 0 0 0 0 0 0 0 0
  239 3 5   39 3305    31  0 0 869 0 0 870 0 871 0 0 872 873 874 0 0 875
  240 3 5   39 2345    31  0 0 0 876 877 878 0 879 880 0 0 881 882 0 0 0
  241 3 5   19 1541    31  0 0 883 884 0 0 885 0 0 0 0 0 0 0 0 0
  242 3 5    4 5154    31 
  243 3 5   14 1153    31  0 0 886 0 0 0 887 0 0 0 0 0 0 0 0 0
  244 3 5    9 1145    31  0 0 0 0 0 0 888 0 0 0 0 0 0 0 0 0
  245 3 5    4 1545    31 
  246 3 5    9 1445    31  0 0 0 0 0 0 0 0 0 0 0 889 0 0 0 0
  247 3 5    9 3131    32  0 0 0 0 0 0 890 0 0 0 0 0 0 0 0 0
  248 3 5   24 3144    32  0 0 0 0 0 0 891 892 893 0 894 0 0 0 0 0
  249 3 5   14 4135    32  0 0 0 0 895 0 0 0 0 0 0 0 896 0 0 0
  250 3 5   29 2343    32  0 0 0 897 0 0 898 0 899 0 0 900 901 0 0 0
  251 3 5   14 3351    32  0 0 0 0 902 0 903 0 0 0 0 0 0 0 0 0
  252 3 5   14 3154    32  0 0 0 0 904 0 0 0 905 0 0 0 0 0 0 0
  253 3 5    4 2433    32 
  254 3 5    4 1143    32 
  255 3 5    4 1543    32 
  256 3 5    4 1443    32 
  257 3 5    4 4133    33 
  258 3 5    4 3431    33 
  259 3 5   14 1131    34  0 0 0 0 0 906 0 0 0 0 907 0 0 0 0 0
  260 3 5   24 1544    34  0 0 0 0 0 0 0 0 0 0 908 909 910 0 0 911
  261 3 5    9 2234    34  0 0 0 0 0 0 0 0 0 0 0 0 0 0 0 912
  262 3 5    9 2534    34  0 0 0 0 0 0 0 0 0 0 0 0 913 0 0 0
  263 3 5    4 3330    34 
  264 3 5   24 1135    34  0 0 0 0 0 914 915 0 916 0 0 0 0 0 0 917
  265 3 5   14 2344    34  0 0 0 0 0 0 0 0 918 0 919 0 0 0 0 0
  266 3 5    4 2354    34 
  267 3 5    9 1355    34  0 0 0 0 0 920 0 0 0 0 0 0 0 0 0 0
  268 3 5    9 2324    34  0 0 0 0 0 0 0 0 0 0 921 0 0 0 0 0
  269 3 5    4 5324    34 
  270 3 5    4 4324    34 
  271 3 5    4 3234    35 
  272 3 5    4 4134    35 
  273 3 5    4 5134    35 
  274 3 5   24 3304    35  0 0 922 0 0 0 0 0 923 0 924 0 0 0 0 925
  275 3 5   14 1533    35  0 0 0 0 0 0 0 0 926 0 927 0 0 0 0 0
  276 3 5    4 1353    35 
  277 3 5    4 1435    35 
  278 3 5    4 1341    35 
  279 3 5    4 3134    36 
  280 3 5    4 4331    36 
  281 3 5    4 1433    36 
  282 3 5    4 1344    37 
  283 3 5    4 1354    37 
  284 3 5    4 2334    37 
  285 3 5   14 1134    37  0 0 0 0 0 0 0 0 0 0 928 0 0 0 0 929
  286 3 5    4 1335    37 
  287 3 5    4 1331    37 
  288 3 5    4 1534    37 
  289 3 5    4 5500    38 
  290 3 5    9 4500    38  0 0 0 0 0 0 0 0 0 0 0 0 930 0 0 0
  291 3 5   14 5105    39  0 0 0 0 0 0 0 0 0 0 0 0 931 0 0 932
  292 3 5   24 4501    39  0 0 0 0 0 0 933 0 934 0 0 0 935 0 0 936
  293 3 5   14 4205    39  0 0 0 0 0 0 0 0 0 0 937 0 938 0 0 0
  294 3 5    4 4204    39 
  295 3 5    9 3500    39  0 0 0 0 0 0 939 0 0 0 0 0 0 0 0 0
  296 3 5   24 2205    39  0 0 940 0 0 0 941 942 0 0 0 0 0 0 0 943
  297 3 5   19 2204    39  0 0 0 0 0 0 944 945 0 0 0 0 0 0 0 946
  298 3 5   19 2250    39  0 0 0 0 0 947 948 0 0 0 0 0 0 0 0 949
  299 3 5   14 2405    39  0 0 950 0 951 0 0 0 0 0 0 0 0 0 0 0
  300 3 5    9 2404    39  0 0 0 0 952 0 0 0 0 0 0 0 0 0 0 0
  301 3 5   14 2240    39  0 0 0 0 0 0 0 0 0 0 0 953 0 0 0 954
  302 3 5    4 5251    40 
  303 3 5   29 4251    40  0 0 955 0 0 956 957 0 0 0 0 0 958 0 0 959
  304 3 5    9 3104    40  0 0 0 0 0 0 0 0 0 0 960 0 0 0 0 0
  305 3 5    4 3204    40 
  306 3 5   19 2155    40  0 0 0 0 0 0 0 0 0 0 0 961 962 0 0 963
  307 3 5   34 2154    40  0 0 0 0 0 0 0 964 965 0 966 967 968 0 0 969
  308 3 5   14 3140    40  0 0 0 0 0 0 0 0 970 0 971 0 0 0 0 0
  309 3 5    4 3240    40 
  310 3 5   14 2441    40  0 972 0 0 0 0 0 0 0 0 0 0 0 0 0 973
  311 3 5    9 4130    40  0 0 0 0 0 0 0 0 0 0 974 0 0 0 0 0
  312 3 5    4 4230    40 
  313 3 5    9 2230    40  0 0 0 0 0 0 0 0 0 0 0 0 0 0 0 975
  314 3 5    4 3251    41 
  315 3 5    4 3241    41 
  316 3 5    4 3230    41 
  317 3 5    4 5231    41 
  318 3 5    4 4231    41 
  319 3 5    4 3130    41 
  320 3 5    9 2231    41  0 0 0 0 0 0 0 0 0 0 0 0 0 0 0 976
  321 3 5    4 2431    41 
  322 3 5    9 2131    41  0 0 0 0 0 0 0 0 0 0 0 0 0 0 0 977
  323 3 5    4 2220    43 
  324 3 5   19 2520    43  0 0 0 0 0 0 0 0 0 0 0 978 979 0 0 980
  325 3 5    4 4520    43 
  326 3 5   19 2420    43  0 0 0 0 0 981 982 0 0 0 0 0 0 0 0 983
  327 3 5   19 1140    43  0 0 0 0 0 0 984 0 0 0 985 0 0 0 0 986
  328 3 5    4 1540    43 
  329 3 5    4 1101    43 
  330 3 5   14 1104    43  0 0 0 0 0 0 0 987 0 0 0 988 0 0 0 0
  331 3 5    9 1450    43  0 0 0 0 0 0 0 0 989 0 0 0 0 0 0 0
  332 3 5   19 1105    43  0 0 0 0 0 0 0 0 0 0 990 991 0 0 0 992
  333 3 5    4 3300    44 
  334 3 5   14 1530    44  0 0 0 993 994 0 0 0 0 0 0 0 0 0 0 0
  335 3 5   24 4301    44  0 995 0 0 996 997 0 0 0 0 0 998 0 0 0 0
  336 3 5    9 1241    44  0 0 0 0 0 0 0 0 0 0 0 0 0 0 0 999
  337 3 5   30 3320    44  0 0 1000 1001 0 0 1002 1003 0 0 0 1004 0 0 0 1005
  338 3 5   34 2203    44  0 1006 0 1007 0 0 0 1008 1009 0 1010 0 0 0 0 1011
  339 3 5   29 4521    44  0 0 0 1012 1013 0 0 0 0 0 0 1014 1015 0 0 1016
  340 3 5    4 4221    44 
  341 3 5   14 5121    44  0 1017 0 0 0 0 0 0 0 0 0 0 0 0 0 1018
  342 3 5   19 2221    44  0 0 0 0 0 0 1019 0 0 0 1020 0 0 0 0 1021
  343 3 5    4 2421    44 
  344 3 5   19 2125    44  0 0 0 0 0 0 0 0 0 0 1022 1023 0 0 0 1024
  345 3 5    4 2330    45 
  346 3 5   14 1231    45  0 0 0 0 0 0 0 1025 0 0 0 0 0 0 0 1026
  347 3 5    4 2341    45 
  348 3 5    9 3203    45  0 0 0 0 0 0 0 0 0 0 0 1027 0 0 0 0
  349 3 5    4 2153    45 
  350 3 5    9 1234    45  0 0 0 0 1028 0 0 0 0 0 0 0 0 0 0 0
  351 3 5    4 3103    45 
  352 3 5    9 3221    45  0 0 0 0 0 0 0 0 0 0 0 0 0 0 0 1029
  353 3 5    4 3421    45 
  354 3 5    9 3121    45  0 0 0 0 0 0 0 0 0 0 0 0 0 0 0 1030
  355 3 5    4 2331    46 
  356 3 5    4 1301    47 
  357 3 5   24 1340    47  0 0 0 0 0 0 0 1031 1032 0 0 1033 0 0 0 1034
  358 3 5    9 1103    47  0 0 1035 0 0 0 0 0 0 0 0 0 0 0 0 0
  359 3 5   14 1304    47  0 0 0 0 0 1036 0 1037 0 0 0 0 0 0 0 0
  360 3 5   19 1225    47  0 0 0 0 0 0 0 0 0 0 1038 1039 0 0 0 1040
  361 3 5    4 1425    47 
  362 3 5    9 1121    47  0 0 0 0 0 1041 0 0 0 0 0 0 0 0 0 0
  363 3 5   14 1224    47  0 0 0 0 0 0 0 0 0 0 1042 0 0 0 0 1043
  364 3 5    4 1524    47 
  365 3 5    4 1124    47 
  366 3 5    4 3320    48 
  367 3 5    9 2321    48  0 0 0 0 0 0 0 0 0 0 0 0 0 0 0 1044
  368 3 5    4 4321    48 
  369 3 5    9 1330    48  0 0 0 0 0 0 0 1045 0 0 0 0 0 0 0 0
  370 3 5    9 2123    48  0 0 0 0 0 0 0 0 0 0 0 0 0 0 0 1046
  371 3 5    4 4123    48 
  372 3 5    4 1253    48 
  373 3 5    4 3321    49 
  374 3 5    4 3123    49 
  375 3 5    4 1303    50 
  376 3 5    4 1321    50 
  377 3 5    9 1324    50  0 0 0 0 0 0 0 0 0 0 0 0 0 0 0 1047
  378 3 5    9 1123    50  0 0 0 0 0 0 0 0 0 0 0 0 0 0 0 1048
  379 3 5    4 1523    50 
  380 3 5    4 1423    50 
  381 3 5    4 5201    51 
  382 3 5    4 2201    51 
  383 3 5    4 2501    51 
  384 3 5    4 2101    51 
  385 3 5    4 4201    52 
  386 3 5    4 3201    52 
  387 3 5    4 2401    52 
  388 3 5    4 2104    52 
  389 3 5    4 5200    53 
  390 3 5    4 2200    53 
  391 3 5    4 1201    54 
  392 3 5    4 1205    54 
  393 3 5    9 3200    54  0 0 0 0 0 0 0 0 0 0 0 0 0 0 0 1049
  394 3 5    4 2400    54 
  395 3 5    4 5100    54 
  396 3 5    4 5120    54 
  397 3 5    4 2120    54 
  398 3 5    4 4120    55 
  399 3 5    9 2130    55  0 0 0 0 0 0 0 0 0 0 0 0 1050 0 0 0
  400 3 5    4 4100    55 
  401 3 5    4 3100    55 
  402 3 5    4 2301    55 
  403 3 5    4 1204    55 
  404 3 5    4 2300    56 
  405 3 5    4 1100    56 
  406 3 5    9 1120    56  0 0 0 0 0 0 0 0 0 0 1051 0 0 0 0 0
  407 3 5    4 1520    56 
  408 3 5    4 1220    56 
  409 3 5    4 2140    57 
  410 3 5    4 1400    57 
  411 3 5    4 1420    57 
  412 3 5    4 1300    58 
  413 3 5    4 1320    58 
  414 3 5    4 2222    60 
  415 3 5    9 2252    60  0 0 0 0 0 0 0 0 0 0 0 0 1052 0 0 0
  416 3 5    4 5252    60 
  417 3 5    4 2522    60 
  418 3 5   14 2552    60  0 0 0 0 0 0 0 0 0 0 0 0 1053 0 0 1054
  419 3 5    4 5111    60 
  420 3 5    4 1111    60 
  421 3 5    9 5115    60  0 0 0 0 0 0 0 0 0 0 0 0 1055 0 0 0
  422 3 5   14 1115    60  0 0 0 0 0 0 0 0 0 0 1056 0 1057 0 0 0
  423 3 5    9 1113    61  0 0 0 0 0 0 0 0 0 0 0 0 1058 0 0 0
  424 3 5   19 1513    61  0 0 0 0 0 0 1059 0 1060 0 0 0 1061 0 0 0
  425 3 5   14 4115    61  0 0 0 0 0 0 0 0 0 0 1062 0 1063 0 0 0
  426 3 5    4 4515    61 
  427 3 5   19 1411    61  1064 0 0 0 0 0 1065 0 0 0 0 0 0 0 0 1066
  428 3 5   34 4222    61  1067 1068 0 0 0 1069 0 0 0 0 1070 0 1071 0 0 1072
  429 3 5   14 2542    61  0 0 0 0 0 0 0 0 0 0 0 0 1073 0 0 1074
  430 3 5   35 4425    61  0 0 1075 0 0 1076 1077 1078 0 0 1079 1080 0 0 0 1081
  431 3 5   19 3552    61  0 0 1082 0 0 0 1083 0 0 0 1084 0 0 0 0 0
  432 3 5    9 4552    61  0 0 0 0 0 0 0 0 0 0 0 0 1085 0 0 0
  433 3 5   19 2452    61  0 0 0 0 0 0 0 0 0 0 0 1086 1087 0 0 1088
  434 3 5   14 4045    62  0 0 0 0 0 1089 0 0 0 0 0 0 0 0 0 1090
  435 3 5    4 4513    62 
  436 3 5    4 3113    62 
  437 3 5   24 1413    62  0 1091 0 0 0 1092 0 0 0 0 1093 0 0 0 0 1094
  438 3 5    4 5413    62 
  439 3 5    9 3055    62  0 0 0 0 0 1095 0 0 0 0 0 0 0 0 0 0
  440 3 5    9 3242    62  0 0 0 0 0 0 1096 0 0 0 0 0 0 0 0 0
  441 3 5    4 3542    62 
  442 3 5    9 3422    62  0 0 0 0 0 0 0 0 0 0 0 0 0 0 0 1097
  443 3 5    4 3413    63 
  444 3 5    4 4053    63 
  445 3 5    9 3053    63  0 0 0 0 0 0 0 0 0 0 1098 0 0 0 0 0
  446 3 5    4 5043    63 
  447 3 5    9 2232    65  0 0 0 0 0 0 0 0 0 0 0 0 1099 0 0 0
  448 3 5   19 2352    65  0 0 0 0 0 0 0 0 1100 0 0 0 1101 0 0 1102
  449 3 5   14  555    65  0 0 0 0 0 1103 1104 0 0 0 0 0 0 0 0 0
  450 3 5    4 5315    65 
  451 3 5    4 5311    65 
  452 3 5    9 1311    65  0 0 0 0 0 1105 0 0 0 0 0 0 0 0 0 0
  453 3 5   14 4114    65  0 0 0 0 0 0 1106 0 0 0 0 1107 0 0 0 0
  454 3 5    4 5114    65 
  455 3 5   19 1414    65  0 0 0 0 0 0 0 0 0 0 1108 1109 0 0 0 1110
  456 3 5   24 1313    66  0 0 1111 0 0 0 1112 0 0 0 0 0 1113 0 0 1114
  457 3 5   39 4232    66  0 1115 1116 0 0 0 1117 0 1118 0 1119 1120 1121 0 0 0
  458 3 5   19 3514    66  0 0 0 1122 0 1123 0 1124 0 0 0 0 0 0 0 0
  459 3 5    4 5044    66 
  460 3 5   24 3414    66  0 0 0 0 0 1125 1126 1127 0 0 1128 0 0 0 0 0
  461 3 5   14 4315    66  0 0 0 1129 0 0 0 0 0 0 0 1130 0 0 0 0
  462 3 5    9 4054    66  0 0 0 0 0 0 1131 0 0 0 0 0 0 0 0 0
  463 3 5    4 5054    66 
  464 3 5    4  553    66 
  465 3 5    4  545    66 
  466 3 5    4  445    66 
  467 3 5    4 4313    67 
  468 3 5    4  443    67 
  469 3 5    4  543    67 
  470 3 5    9 3342    67  0 0 0 0 0 0 0 0 0 0 0 0 1132 0 0 0
  471 3 5    4 5033    67 
  472 3 5    9  453    67  0 0 0 0 1133 0 0 0 0 0 0 0 0 0 0 0
  473 3 5    4 3033    67 
  474 3 5    4 3035    67 
  475 3 5    4 3044    67 
  476 3 5    9 2332    69  0 0 0 0 0 0 0 0 0 0 0 0 0 0 0 1134
  477 3 5    4 5332    69 
  478 3 5    4  355    69 
  479 3 5    4 1314    69 
  480 3 5    9  535    69  0 0 1135 0 0 0 0 0 0 0 0 0 0 0 0 0
  481 3 5    4  444    69 
  482 3 5    4  454    69 
  483 3 5    4 4314    69 
  484 3 5    4  554    69 
  485 3 5    4  544    69 
  486 3 5    4 4034    70 
  487 3 5    4 5034    70 
  488 3 5    9 3314    70  0 0 0 0 0 0 0 1136 0 0 0 0 0 0 0 0
  489 3 5    4  533    70 
  490 3 5    4  353    70 
  491 3 5    4  435    70 
  492 3 5    4 3034    71 
  493 3 5    4  433    71 
  494 3 5    9  333    72  0 0 0 0 0 0 0 0 0 0 0 0 0 0 0 1137
  495 3 5    4  534    72 
  496 3 5    4  434    72 
  497 3 5    4  354    72 
  498 3 5    9 2111    73  0 0 0 0 0 0 0 0 0 0 0 0 0 0 0 1138
  499 3 5   14 2115    73  0 0 0 0 0 0 0 0 1139 0 0 0 0 0 0 1140
  500 3 5    4 5215    73 
  501 3 5    9 1211    73  0 0 1141 0 0 0 0 0 0 0 0 0 0 0 0 0
  502 3 5   14 1215    73  0 0 0 1142 0 0 0 0 1143 0 0 0 0 0 0 0
  503 3 5    4 2515    73 
  504 3 5    9 1122    73  0 0 0 0 0 0 0 0 0 0 0 0 0 0 0 1144
  505 3 5    4 2152    73 
  506 3 5    4 5152    73 
  507 3 5   14 1152    73  0 0 0 0 0 0 0 0 0 0 0 1145 0 0 0 1146
  508 3 5   29 1510    74  0 0 1147 1148 0 0 0 1149 1150 0 0 0 0 0 0 1151
  509 3 5   19 2411    74  0 0 0 0 0 0 0 1152 0 0 0 0 1153 0 0 1154
  510 3 5   14 1213    74  0 0 0 0 0 0 0 0 0 0 0 1155 0 0 0 1156
  511 3 5    4 2213    74 
  512 3 5   14 1110    74  0 1157 0 0 0 0 0 0 0 0 0 0 0 0 0 1158
  513 3 5   19 1452    74  0 0 1159 0 0 0 0 0 0 0 0 0 1160 0 0 1161
  514 3 5   29 2113    74  0 0 1162 1163 0 0 0 1164 1165 0 0 1166 0 0 0 0
  515 3 5    4 1232    74 
  516 3 5   19 4152    74  0 0 0 0 0 0 0 0 0 0 0 1167 1168 0 0 1169
  517 3 5   19 1422    74  0 0 0 0 0 0 1170 0 1171 0 1172 0 0 0 0 0
  518 3 5    4 2132    74 
  519 3 5   14 3132    74  0 0 0 0 0 0 0 0 0 0 1173 0 0 0 0 1174
  520 3 5   24 1432    75  0 0 1175 0 1176 0 0 0 1177 0 0 0 1178 0 0 0
  521 3 5   19 1410    75  0 0 0 0 0 0 0 0 0 0 1179 0 1180 0 0 1181
  522 3 5    4 4510    75 
  523 3 5   14 2033    75  0 0 0 0 0 0 0 0 0 0 0 0 1182 0 0 1183
  524 3 5   24 2053    75  0 0 1184 0 0 0 0 0 1185 0 1186 0 1187 0 0 0
  525 3 5   14 1035    75  0 0 0 0 0 0 0 0 0 0 1188 0 1189 0 0 0
  526 3 5    4 5410    75 
  527 3 5   19 1031    75  0 0 0 0 0 1190 1191 0 0 0 0 0 0 0 0 1192
  528 3 5    9 2045    75  0 0 0 0 0 0 1193 0 0 0 0 0 0 0 0 0
  529 3 5    9 1045    75  0 0 0 0 0 0 0 0 1194 0 0 0 0 0 0 0
  530 3 5   14 1041    75  0 0 0 0 0 0 0 0 0 0 1195 0 0 0 0 1196
  531 3 5    4 3410    76 
  532 3 5   19 4050    76  0 0 0 0 0 0 0 0 0 0 1197 1198 0 0 0 1199
  533 3 5    4 4031    76 
  534 3 5    9 4040    76  0 0 0 0 0 0 0 0 0 0 0 0 0 0 0 1200
  535 3 5    4 4023    76 
  536 3 5    4 3041    76 
  537 3 5    4 2043    76 
  538 3 5    4 4030    77 
  539 3 5    9 1214    78  0 0 0 0 0 0 0 0 0 0 0 0 0 0 0 1201
  540 3 5   14  151    78  0 0 1202 0 0 0 0 0 0 0 0 0 0 0 0 1203
  541 3 5    4  255    78 
  542 3 5    4  225    78 
  543 3 5   24 2114    78  0 0 1204 0 0 0 0 0 0 0 1205 1206 0 0 0 1207
  544 3 5   24 1322    78  0 1208 0 1209 0 0 0 1210 0 0 0 0 0 0 0 1211
  545 3 5    4  525    78 
  546 3 5    4 2514    78 
  547 3 5    4 5202    78 
  548 3 5    9 2202    78  0 0 0 0 0 0 0 0 0 0 1212 0 0 0 0 0
  549 3 5    4 3202    79 
  550 3 5   50 3224    79  1213 1214 1215 1216 0 1217 1218 1219 0 0 1220 1221 0 0 0 1222
  551 3 5   24 5024    79  0 0 0 0 1223 0 1224 0 1225 0 0 0 1226 0 0 0
  552 3 5    4 1054    79 
  553 3 5    9  223    79  0 0 0 0 0 0 0 0 0 0 0 0 0 0 0 1227
  554 3 5   30 5505    79  1228 1229 1230 0 0 0 1231 1232 0 0 0 0 0 0 0 1233
  555 3 5    9  531    79  0 0 1234 0 0 0 0 0 0 0 0 0 0 0 0 0
  556 3 5    4  451    79 
  557 3 5   14  131    79  0 0 0 0 0 0 0 0 0 0 1235 0 0 0 0 1236
  558 3 5   14  425    79  0 0 0 0 0 0 1237 0 0 0 1238 0 0 0 0 0
  559 3 5    4  541    79 
  560 3 5   15 5553    79  1239 1240 1241 0 0 0 0 0 0 0 0 0 0 0 0 0
  561 3 5   19 1034    80  0 0 0 0 0 0 1242 0 0 0 0 1243 0 0 0 1244
  562 3 5    9 3005    80  0 0 0 0 0 0 0 0 0 0 0 0 1245 0 0 0
  563 3 5    4 4005    80 
  564 3 5   24  143    80  0 0 1246 1247 1248 0 0 0 0 0 0 0 0 0 0 1249
  565 3 5    4 4000    80 
  566 3 5    9  423    80  0 0 0 0 0 0 0 0 0 0 0 1250 0 0 0 0
  567 3 5    4  530    80 
  568 3 5    4  540    80 
  569 3 5    4  440    80 
  570 3 5    4 4003    81 
  571 3 5    9 2302    82  0 0 0 0 0 0 0 0 0 0 0 0 0 0 0 1251
  572 3 5    4 5302    82 
  573 3 5    4  331    82 
  574 3 5   19  500    82  1252 0 0 0 0 1253 0 0 0 0 0 0 0 0 0 1254
  575 3 5    4  325    82 
  576 3 5    9  144    82  0 0 0 0 0 0 1255 0 0 0 0 0 0 0 0 0
  577 3 5    4  424    82 
  578 3 5    4  524    82 
  579 3 5   14  224    82  0 0 0 0 0 0 0 0 0 0 1256 0 0 0 0 1257
  580 3 5    4 4004    83 
  581 3 5    4 5004    83 
  582 3 5   14  134    83  0 0 0 1258 0 0 0 0 0 0 0 0 0 0 0 1259
  583 3 5    4  405    83 
  584 3 5    4  503    83 
  585 3 5    9  341    83  0 0 0 0 0 0 1260 0 0 0 0 0 0 0 0 0
  586 3 5    4  330    83 
  587 3 5    4 3004    84 
  588 3 5    4  403    84 
  589 3 5    4  303    85 
  590 3 5    4  305    85 
  591 3 5    4  504    85 
  592 3 5    4  300    85 
  593 3 5    4  404    85 
  594 3 5    4  324    85 
  595 3 5    4 5001    86 
  596 3 5    4 1001    86 
  597 3 5    4 1005    86 
  598 3 5    4 1000    86 
  599 3 5   14 1003    87  0 0 0 0 0 0 0 0 0 0 0 1261 1262 0 0 0
  600 3 5    9 1102    87  0 0 0 0 0 0 0 0 0 0 0 0 0 0 0 1263
  601 3 5    4 5102    87 
  602 3 5    9 1030    87  0 0 0 0 0 0 0 0 0 0 0 0 0 0 0 1264
  603 3 5    9 2005    87  0 0 0 0 0 0 0 0 0 0 1265 0 0 0 0 0
  604 3 5    9 1502    87  0 0 0 0 1266 0 0 0 0 0 0 0 0 0 0 0
  605 3 5    4 2000    87 
  606 3 5    9 1210    87  0 0 0 0 0 0 1267 0 0 0 0 0 0 0 0 0
  607 3 5    4 5210    87 
  608 3 5    9 2110    87  0 0 0 0 0 0 0 0 0 0 0 0 0 0 0 1268
  609 3 5    4 3102    88 
  610 3 5    4 4102    88 
  611 3 5    4 2003    88 
  612 3 5    4 2031    88 
  613 3 5    9 1402    88  0 0 0 0 1269 0 0 0 0 0 0 0 0 0 0 0
  614 3 5    4 2030    88 
  615 3 5    9 2040    88  0 0 0 0 0 0 1270 0 0 0 0 0 0 0 0 0
  616 3 5    4 4210    88 
  617 3 5    4  501    89 
  618 3 5    4  101    89 
  619 3 5    4  105    89 
  620 3 5    4  100    89 
  621 3 5    9 1021    90  0 0 0 0 0 0 0 0 0 0 0 0 0 0 0 1271
  622 3 5    9 2020    90  0 0 0 0 0 0 0 0 0 0 1272 0 0 0 0 0
  623 3 5    4 5020    90 
  624 3 5   14  130    90  0 0 0 1273 0 0 0 0 0 0 0 0 0 0 0 1274
  625 3 5    4 1025    90 
  626 3 5    9  103    90  0 0 0 0 0 0 0 0 0 0 0 1275 0 0 0 0
  627 3 5    4  251    90 
  628 3 5    4  250    90 
  629 3 5    4  200    90 
  630 3 5   14 1023    91  0 0 0 0 0 0 0 0 1276 0 0 0 1277 0 0 0
  631 3 5    4 4021    91 
  632 3 5    4 2004    91 
  633 3 5    4 2310    91 
  634 3 5    4 3020    91 
  635 3 5    4 4020    91 
  636 3 5    4  231    91 
  637 3 5    4  203    91 
  638 3 5    9  230    91  0 0 0 0 0 0 0 0 0 0 1278 0 0 0 0 0
  639 3 5    4  301    92 
  640 3 5    9  104    92  0 0 0 0 0 0 1279 0 0 0 0 0 0 0 0 0
  641 3 5    9  221    92  0 0 0 0 0 0 0 0 0 0 1280 0 0 0 0 0
  642 3 5    4  521    92 
  643 3 5    4  121    92 
  644 3 5    4  204    93 
  645 3 5    4 1024    93 
  646 3 5    4  420    93 
  647 3 5    4  421    93 
  648 3 5    4  320    94 
  649 3 5    4  321    94 
  650 3 5    4 1212    98 
  651 3 5    4 5212    98 
  652 3 5    4 5022    98 
  653 3 5    4 2212    98 
  654 3 5    9 1512    98  0 0 0 0 0 1281 0 0 0 0 0 0 0 0 0 0
  655 3 5    4 5512    98 
  656 3 5    4 5052    98 
  657 3 5    4 2512    98 
  658 3 5    4 2052    98 
  659 3 5    4 3022    99 
  660 3 5   14 4022    99  0 0 0 0 0 0 0 0 0 0 1282 0 0 0 0 1283
  661 3 5    9 4052    99  0 0 0 0 0 0 0 0 0 0 0 0 1284 0 0 0
  662 3 5    4 1011    99 
  663 3 5   24 1312    99  0 0 0 0 0 1285 1286 0 0 0 0 1287 0 0 0 1288
  664 3 5   14 3512    99  0 0 0 0 0 0 0 0 0 0 1289 0 1290 0 0 0
  665 3 5    4 4512    99 
  666 3 5   14 1015    99  0 0 0 0 0 1291 0 0 0 0 0 0 0 0 0 1292
  667 3 5    9 1412    99  0 0 0 0 0 0 0 0 0 0 0 0 0 0 0 1293
  668 3 5    4 5412    99 
  669 3 5    4 2412    99 
  670 3 5    9 1013   100  0 0 0 0 0 0 0 0 0 0 0 1294 0 0 0 0
  671 3 5    4 5013   100 
  672 3 5    4 4312   100 
  673 3 5    9 3011   100  0 0 0 0 0 0 0 0 0 0 0 0 0 0 0 1295
  674 3 5    4 4015   100 
  675 3 5    4 3042   100 
  676 3 5    4 3015   100 
  677 3 5    4 3412   100 
  678 3 5    9 1112   102  0 0 0 0 0 0 0 0 0 0 0 0 0 0 0 1296
  679 3 5    4 5112   102 
  680 3 5    4  222   102 
  681 3 5    4  522   102 
  682 3 5    9  252   102  0 0 0 0 0 0 0 0 0 0 0 0 0 0 0 1297
  683 3 5    4    5   102 
  684 3 5    9    0   102  0 0 0 0 0 0 0 0 0 0 1298 0 0 0 0 0
  685 3 5    4 3112   103 
  686 3 5   14 2032   103  0 0 0 0 0 1299 0 0 0 0 0 0 0 0 0 1300
  687 3 5    4 5032   103 
  688 3 5    4    3   103 
  689 3 5   14   40   103  0 0 0 0 0 1301 0 0 0 0 1302 0 0 0 0 0
  690 3 5    9  242   103  0 0 0 0 0 0 0 0 0 0 1303 0 0 0 0 0
  691 3 5    4  542   103 
  692 3 5    9  322   103  0 0 0 0 0 1304 0 0 0 0 0 0 0 0 0 0
  693 3 5    9   45   103  0 0 0 0 0 0 0 0 0 0 1305 0 0 0 0 0
  694 3 5    4  452   103 
  695 3 5    4  422   103 
  696 3 5    4 4032   104 
  697 3 5    9   43   104  0 0 0 0 0 0 0 0 0 0 0 1306 0 0 0 0
  698 3 5    9 1014   104  0 0 0 0 0 0 0 0 0 0 0 0 0 0 0 1307
  699 3 5    4 5014   104 
  700 3 5    9  311   104  0 0 0 0 0 0 0 0 0 0 0 0 0 0 0 1308
  701 3 5    4  513   104 
  702 3 5    9  315   104  0 0 0 0 0 0 0 0 0 0 1309 0 0 0 0 0
  703 3 5    4 3014   105 
  704 3 5    4  111   106 
  705 3 5    4  115   106 
  706 3 5    9    4   106  0 0 0 0 0 0 0 0 0 0 0 0 0 0 0 1310
  707 3 5    9   54   106  0 0 0 0 0 1311 0 0 0 0 0 0 0 0 0 0
  708 3 5    9  332   106  0 0 0 0 0 0 0 0 0 0 0 0 0 0 0 1312
  709 3 5    4   30   106 
  710 3 5    4   35   106 
  711 3 5    4   33   106 
  712 3 5    4  432   107 
  713 3 5    4  113   107 
  714 3 5    4  414   107 
  715 3 5    4  114   109 
  716 3 5    4   51   110 
  717 3 5    4 5010   110 
  718 3 5    4 1010   110 
  719 3 5    4  510   110 
  720 3 5   19   31   111  0 0 0 0 0 0 0 1313 0 0 1314 0 0 0 0 1315
  721 3 5    4 2011   111 
  722 3 5    4  310   111 
  723 3 5    4   25   111 
  724 3 5    4 2015   111 
  725 3 5    4  211   111 
  726 3 5    4   24   112 
  727 3 5    4 2014   112 
  728 3 5    4   23   112 
  729 3 5    4 2013   112 
  730 3 5    4  214   112 
  731 3 5    4 3010   114 
  732 3 5    4  410   114 
  733 3 5    4 1052   114 
  734 3 5    4 1022   114 
  735 3 5    4  152   114 
  736 3 5    4 1042   115 
  737 3 5    4 1032   115 
  738 3 5    4  142   115 
  739 3 5    4 5002   116 
  740 3 5    4 2002   116 
  741 3 5    4  502   116 
  742 3 5    4 4002   117 
  743 3 5    4 3002   118 
  744 3 5    4  210   120 
  745 3 5    9   11   122  0 0 0 0 0 0 0 0 0 0 0 0 0 0 0 1316
  746 3 5    4   14   123 
  747 3 5    9   22   124  0 0 0 0 0 0 0 0 0 0 0 0 0 0 0 1317
  748 3 5    4   32   125 
  749 3 5    4 5012   125 
  750 3 5    4 2012   125 
  751 3 5    9  112   125  0 0 0 0 0 0 0 0 0 0 0 0 0 0 0 1318
  752 3 5    4 3012   126 
  753 3 5    4 4012   126 
  754 3 5    4 1012   127 
  755 4 5    5 5454   131 
  756 4 5    5 4553   136 
  757 4 5    5 5333   148 
  758 4 5    5 5543   149 
  759 4 5    5 5353   151 
  760 4 5    5 5435   152 
  761 4 5    5 5443   153 
  762 4 5    5 3553   154 
  763 4 5    5 3554   157 
  764 4 5    5 5545   162 
  765 4 5    5 3555   162 
  766 4 5    5 5335   170 
  767 4 5    5 3443   171 
  768 4 5    5 3543   175 
  769 4 5    5 3343   179 
  770 4 5    5 5225   186 
  771 4 5    5 5255   187 
  772 4 5    5 5440   191 
  773 4 5    5 5540   191 
  774 4 5    5 4540   191 
  775 4 5    5 5405   191 
  776 4 5    5 4405   191 
  777 4 5    5 4425   192 
  778 4 5    5 5425   192 
  779 4 5    5 4525   192 
  780 4 5    5 4450   194 
  781 4 5    5 4550   194 
  782 4 5    5 5450   194 
  783 4 5    5 5551   194 
  784 4 5    5 5151   194 
  785 4 5    5 3550   195 
  786 4 5    5 5503   195 
  787 4 5    5 2445   195 
  788 4 5    5 2545   195 
  789 4 5    5 4245   195 
  790 4 5    5 5523   196 
  791 4 5    5 4225   196 
  792 4 5    5 4255   198 
  793 4 5    5 3255   199 
  794 4 5    5 5223   200 
  795 4 5    5 2223   201 
  796 4 5    5 5253   201 
  797 4 5    5 3503   203 
  798 4 5    5 3440   203 
  799 4 5    5 3523   203 
  800 4 5    5 2243   203 
  801 4 5    5 2443   203 
  802 4 5    5 5403   204 
  803 4 5    5 5423   204 
  804 4 5    5 3540   204 
  805 4 5    5 5243   204 
  806 4 5    5 3253   207 
  807 4 5    5 4403   207 
  808 4 5    5 4423   207 
  809 4 5    5 4223   207 
  810 4 5    5 4523   208 
  811 4 5    5 4441   208 
  812 4 5    5 2453   208 
  813 4 5    5 4503   208 
  814 4 5    5 3245   208 
  815 4 5    5 3450   208 
  816 4 5    5 3425   208 
  817 4 5    5 5141   209 
  818 4 5    5 4541   209 
  819 4 5    5 4253   211 
  820 4 5    5 4141   211 
  821 4 5    5 5153   212 
  822 4 5    5 5145   213 
  823 4 5    5 3155   214 
  824 4 5    5 4151   214 
  825 4 5    5 4153   218 
  826 4 5    5 3423   219 
  827 4 5    5 3153   220 
  828 4 5    5 1151   224 
  829 4 5    5 5404   224 
  830 4 5    5 4424   224 
  831 4 5    5 4224   224 
  832 4 5    5 5424   225 
  833 4 5    5 5224   225 
  834 4 5    5 5244   225 
  835 4 5    5 5350   226 
  836 4 5    5 4504   227 
  837 4 5    5 2244   227 
  838 4 5    5 2444   227 
  839 4 5    5 2224   227 
  840 4 5    5 2424   227 
  841 4 5    5 1155   228 
  842 4 5    5 1551   228 
  843 4 5    5 2254   228 
  844 4 5    5 2454   228 
  845 4 5    5 5504   228 
  846 4 5    5 5524   229 
  847 4 5    5 1555   231 
  848 4 5    5 2544   231 
  849 4 5    5 5530   232 
  850 4 5    5 2554   232 
  851 4 5    5 5235   233 
  852 4 5    5 3303   235 
  853 4 5    5 3323   235 
  854 4 5    5 2323   235 
  855 4 5    5 3233   235 
  856 4 5    5 3244   236 
  857 4 5    5 3530   236 
  858 4 5    5 4340   236 
  859 4 5    5 3224   236 
  860 4 5    5 2533   236 
  861 4 5    5 5233   236 
  862 4 5    5 5303   236 
  863 4 5    5 5131   237 
  864 4 5    5 5340   237 
  865 4 5    5 4144   237 
  866 4 5    5 4530   237 
  867 4 5    5 3524   237 
  868 4 5    5 5531   238 
  869 4 5    5 4430   239 
  870 4 5    5 3424   239 
  871 4 5    5 2353   239 
  872 4 5    5 3404   239 
  873 4 5    5 3235   239 
  874 4 5    5 3350   239 
  875 4 5    5 3325   239 
  876 4 5    5 5430   240 
  877 4 5    5 3254   240 
  878 4 5    5 1141   240 
  879 4 5    5 4350   240 
  880 4 5    5 4235   240 
  881 4 5    5 4305   240 
  882 4 5    5 4325   240 
  883 4 5    5 5135   241 
  884 4 5    5 4154   241 
  885 4 5    5 5351   241 
  886 4 5    5 2435   243 
  887 4 5    5 1441   243 
  888 4 5    5 1553   244 
  889 4 5    5 1451   246 
  890 4 5    5 3340   247 
  891 4 5    5 3531   248 
  892 4 5    5 4131   248 
  893 4 5    5 4341   248 
  894 4 5    5 3135   248 
  895 4 5    5 5341   249 
  896 4 5    5 4531   249 
  897 4 5    5 3430   250 
  898 4 5    5 3133   250 
  899 4 5    5 4233   250 
  900 4 5    5 4303   250 
  901 4 5    5 4323   250 
  902 4 5    5 5133   251 
  903 4 5    5 4431   251 
  904 4 5    5 5431   252 
  905 4 5    5 4351   252 
  906 4 5    5 1444   259 
  907 4 5    5 1144   259 
  908 4 5    5 1531   260 
  909 4 5    5 1154   260 
  910 4 5    5 1454   260 
  911 4 5    5 1554   260 
  912 4 5    5 2434   261 
  913 4 5    5 5234   262 
  914 4 5    5 2333   264 
  915 4 5    5 5330   264 
  916 4 5    5 1351   264 
  917 4 5    5 1535   264 
  918 4 5    5 4234   265 
  919 4 5    5 5304   265 
  920 4 5    5 4304   267 
  921 4 5    5 2335   268 
  922 4 5    5 1133   274 
  923 4 5    5 4330   274 
  924 4 5    5 3331   274 
  925 4 5    5 3324   274 
  926 4 5    5 5331   275 
  927 4 5    5 1431   275 
  928 4 5    5 1333   285 
  929 4 5    5 1434   285 
  930 4 5    5 5400   290 
  931 4 5    5 5501   291 
  932 4 5    5 5101   291 
  933 4 5    5 5205   292 
  934 4 5    5 5104   292 
  935 4 5    5 4105   292 
  936 4 5    5 4101   292 
  937 4 5    5 4104   293 
  938 4 5    5 5204   293 
  939 4 5    5 5150   295 
  940 4 5    5 4150   296 
  941 4 5    5 5401   296 
  942 4 5    5 5250   296 
  943 4 5    5 2505   296 
  944 4 5    5 4401   297 
  945 4 5    5 4250   297 
  946 4 5    5 2504   297 
  947 4 5    5 3400   298 
  948 4 5    5 5140   298 
  949 4 5    5 2550   298 
  950 4 5    5 4140   299 
  951 4 5    5 5240   299 
  952 4 5    5 4240   300 
  953 4 5    5 2450   301 
  954 4 5    5 2540   301 
  955 4 5    5 3105   303 
  956 4 5    5 3101   303 
  957 4 5    5 3501   303 
  958 4 5    5 5241   303 
  959 4 5    5 4241   303 
  960 4 5    5 3205   304 
  961 4 5    5 2251   306 
  962 4 5    5 2551   306 
  963 4 5    5 2151   306 
  964 4 5    5 2241   307 
  965 4 5    5 2541   307 
  966 4 5    5 3150   307 
  967 4 5    5 2141   307 
  968 4 5    5 2145   307 
  969 4 5    5 2144   307 
  970 4 5    5 3401   308 
  971 4 5    5 3250   308 
  972 4 5    5 5130   310 
  973 4 5    5 2451   310 
  974 4 5    5 5230   311 
  975 4 5    5 2530   313 
  976 4 5    5 2531   320 
  977 4 5    5 2135   322 
  978 4 5    5 4220   324 
  979 4 5    5 5220   324 
  980 4 5    5 5520   324 
  981 4 5    5 5300   326 
  982 4 5    5 4300   326 
  983 4 5    5 4420   326 
  984 4 5    5 5420   327 
  985 4 5    5 1550   327 
  986 4 5    5 1150   327 
  987 4 5    5 1440   330 
  988 4 5    5 1501   330 
  989 4 5    5 1504   331 
  990 4 5    5 1404   332 
  991 4 5    5 1401   332 
  992 4 5    5 1505   332 
  993 4 5    5 5203   334 
  994 4 5    5 5301   334 
  995 4 5    5 1255   335 
  996 4 5    5 1430   335 
  997 4 5    5 1251   335 
  998 4 5    5 4203   335 
  999 4 5    5 1245   336 
 1000 4 5    5 5103   337 
 1001 4 5    5 2503   337 
 1002 4 5    5 1130   337 
 1003 4 5    5 2305   337 
 1004 4 5    5 2350   337 
 1005 4 5    5 3520   337 
 1006 4 5    5 5521   338 
 1007 4 5    5 3420   338 
 1008 4 5    5 2340   338 
 1009 4 5    5 3220   338 
 1010 4 5    5 4103   338 
 1011 4 5    5 2403   338 
 1012 4 5    5 1244   339 
 1013 4 5    5 1254   339 
 1014 4 5    5 5221   339 
 1015 4 5    5 5421   339 
 1016 4 5    5 4421   339 
 1017 4 5    5 2304   341 
 1018 4 5    5 5125   341 
 1019 4 5    5 4125   342 
 1020 4 5    5 4121   342 
 1021 4 5    5 2521   342 
 1022 4 5    5 4124   344 
 1023 4 5    5 5124   344 
 1024 4 5    5 2121   344 
 1025 4 5    5 2351   346 
 1026 4 5    5 1235   346 
 1027 4 5    5 3301   348 
 1028 4 5    5 2143   350 
 1029 4 5    5 3521   352 
 1030 4 5    5 3125   354 
 1031 4 5    5 1503   357 
 1032 4 5    5 1403   357 
 1033 4 5    5 1305   357 
 1034 4 5    5 1350   357 
 1035 4 5    5 2320   358 
 1036 4 5    5 1221   359 
 1037 4 5    5 4320   359 
 1038 4 5    5 1421   360 
 1039 4 5    5 1521   360 
 1040 4 5    5 1525   360 
 1041 4 5    5 5320   362 
 1042 4 5    5 1125   363 
 1043 4 5    5 1424   363 
 1044 4 5    5 5321   367 
 1045 4 5    5 2303   369 
 1046 4 5    5 5123   370 
 1047 4 5    5 1325   377 
 1048 4 5    5 1223   378 
 1049 4 5    5 4200   393 
 1050 4 5    5 3120   399 
 1051 4 5    5 1500   406 
 1052 4 5    5 5222   415 
 1053 4 5    5 5522   418 
 1054 4 5    5 5552   418 
 1055 4 5    5 5511   421 
 1056 4 5    5 5515   422 
 1057 4 5    5 1511   422 
 1058 4 5    5 3111   423 
 1059 4 5    5 4111   424 
 1060 4 5    5 3115   424 
 1061 4 5    5 3511   424 
 1062 4 5    5 3515   425 
 1063 4 5    5 4511   425 
 1064 4 5    5 3222   427 
 1065 4 5    5 5113   427 
 1066 4 5    5 4411   427 
 1067 4 5    5 5513   428 
 1068 4 5    5 1415   428 
 1069 4 5    5 4415   428 
 1070 4 5    5 3522   428 
 1071 4 5    5 2242   428 
 1072 4 5    5 4242   428 
 1073 4 5    5 4522   429 
 1074 4 5    5 4542   429 
 1075 4 5    5 3252   430 
 1076 4 5    5 5055   430 
 1077 4 5    5 5411   430 
 1078 4 5    5 2442   430 
 1079 4 5    5 2422   430 
 1080 4 5    5 4442   430 
 1081 4 5    5 4422   430 
 1082 4 5    5 5415   431 
 1083 4 5    5 5242   431 
 1084 4 5    5 4252   431 
 1085 4 5    5 5542   432 
 1086 4 5    5 5442   433 
 1087 4 5    5 5422   433 
 1088 4 5    5 4452   433 
 1089 4 5    5 4113   434 
 1090 4 5    5 5045   434 
 1091 4 5    5 4055   437 
 1092 4 5    5 5053   437 
 1093 4 5    5 3513   437 
 1094 4 5    5 4413   437 
 1095 4 5    5 3411   439 
 1096 4 5    5 3415   440 
 1097 4 5    5 3442   442 
 1098 4 5    5 4043   445 
 1099 4 5    5 2322   447 
 1100 4 5    5 5232   448 
 1101 4 5    5 5322   448 
 1102 4 5    5 5352   448 
 1103 4 5    5 2532   449 
 1104 4 5    5 5532   449 
 1105 4 5    5 4414   452 
 1106 4 5    5 1315   453 
 1107 4 5    5 5414   453 
 1108 4 5    5 5514   455 
 1109 4 5    5 4514   455 
 1110 4 5    5 1114   455 
 1111 4 5    5 3232   456 
 1112 4 5    5 3322   456 
 1113 4 5    5 3311   456 
 1114 4 5    5 3313   456 
 1115 4 5    5 5313   457 
 1116 4 5    5 3114   457 
 1117 4 5    5 4311   457 
 1118 4 5    5 2342   457 
 1119 4 5    5 3532   457 
 1120 4 5    5 4342   457 
 1121 4 5    5 4322   457 
 1122 4 5    5 5342   458 
 1123 4 5    5 4044   458 
 1124 4 5    5 4532   458 
 1125 4 5    5 3352   460 
 1126 4 5    5 2432   460 
 1127 4 5    5 4432   460 
 1128 4 5    5 3315   460 
 1129 4 5    5 5432   461 
 1130 4 5    5 4352   461 
 1131 4 5    5 5035   462 
 1132 4 5    5 3432   470 
 1133 4 5    5 4035   472 
 1134 4 5    5 3332   476 
 1135 4 5    5 5314   480 
 1136 4 5    5 4332   488 
 1137 4 5    5  335   494 
 1138 4 5    5 2211   498 
 1139 4 5    5 5211   499 
 1140 4 5    5 2215   499 
 1141 4 5    5 2122   501 
 1142 4 5    5 5122   502 
 1143 4 5    5 2511   502 
 1144 4 5    5 1222   504 
 1145 4 5    5 1522   507 
 1146 4 5    5 1252   507 
 1147 4 5    5 2055   508 
 1148 4 5    5 5051   508 
 1149 4 5    5 1055   508 
 1150 4 5    5 1051   508 
 1151 4 5    5 5510   508 
 1152 4 5    5 4215   509 
 1153 4 5    5 4211   509 
 1154 4 5    5 2415   509 
 1155 4 5    5 2513   510 
 1156 4 5    5 5213   510 
 1157 4 5    5 5025   512 
 1158 4 5    5 5110   512 
 1159 4 5    5 2025   513 
 1160 4 5    5 1542   513 
 1161 4 5    5 1442   513 
 1162 4 5    5 1242   514 
 1163 4 5    5 1532   514 
 1164 4 5    5 3215   514 
 1165 4 5    5 3211   514 
 1166 4 5    5 3213   514 
 1167 4 5    5 1142   516 
 1168 4 5    5 5142   516 
 1169 4 5    5 4142   516 
 1170 4 5    5 5132   517 
 1171 4 5    5 2142   517 
 1172 4 5    5 1132   517 
 1173 4 5    5 4122   519 
 1174 4 5    5 3152   519 
 1175 4 5    5 3110   520 
 1176 4 5    5 4213   520 
 1177 4 5    5 2413   520 
 1178 4 5    5 4132   520 
 1179 4 5    5 3510   521 
 1180 4 5    5 4110   521 
 1181 4 5    5 4410   521 
 1182 4 5    5 3023   523 
 1183 4 5    5 2023   523 
 1184 4 5    5 3142   524 
 1185 4 5    5 3025   524 
 1186 4 5    5 1033   524 
 1187 4 5    5 2035   524 
 1188 4 5    5 4025   525 
 1189 4 5    5 1053   525 
 1190 4 5    5 5050   527 
 1191 4 5    5 5023   527 
 1192 4 5    5 3031   527 
 1193 4 5    5 3051   528 
 1194 4 5    5 4051   529 
 1195 4 5    5 5031   530 
 1196 4 5    5 4041   530 
 1197 4 5    5 3030   532 
 1198 4 5    5 5030   532 
 1199 4 5    5 3050   532 
 1200 4 5    5 5040   534 
 1201 4 5    5 4214   539 
 1202 4 5    5 5214   540 
 1203 4 5    5  155   540 
 1204 4 5    5 1332   543 
 1205 4 5    5 2313   543 
 1206 4 5    5 2311   543 
 1207 4 5    5 2414   543 
 1208 4 5    5  551   544 
 1209 4 5    5 2214   544 
 1210 4 5    5 2315   544 
 1211 4 5    5 1352   544 
 1212 4 5    5 5502   548 
 1213 4 5    5 5000   550 
 1214 4 5    5 1310   550 
 1215 4 5    5 4402   550 
 1216 4 5    5 2402   550 
 1217 4 5    5 3310   550 
 1218 4 5    5 3502   550 
 1219 4 5    5 4202   550 
 1220 4 5    5 4024   550 
 1221 4 5    5 2024   550 
 1222 4 5    5 3214   550 
 1223 4 5    5 4502   551 
 1224 4 5    5 5310   551 
 1225 4 5    5 5402   551 
 1226 4 5    5 2054   551 
 1227 4 5    5  233   553 
 1228 4 5    5 1342   554 
 1229 4 5    5 2044   554 
 1230 4 5    5  253   554 
 1231 4 5    5  523   554 
 1232 4 5    5  550   554 
 1233 4 5    5 5005   554 
 1234 4 5    5 1044   555 
 1235 4 5    5  235   557 
 1236 4 5    5  133   557 
 1237 4 5    5  153   558 
 1238 4 5    5  441   558 
 1239 4 5    5  141   560 
 1240 4 5    5  245   560 
 1241 4 5    5  135   560 
 1242 4 5    5 3003   561 
 1243 4 5    5 3024   561 
 1244 4 5    5 2034   561 
 1245 4 5    5 5003   562 
 1246 4 5    5 3000   564 
 1247 4 5    5 3402   564 
 1248 4 5    5 4310   564 
 1249 4 5    5  243   564 
 1250 4 5    5  431   566 
 1251 4 5    5 3302   571 
 1252 4 5    5 2314   574 
 1253 4 5    5  323   574 
 1254 4 5    5  505   574 
 1255 4 5    5  351   576 
 1256 4 5    5  154   579 
 1257 4 5    5  244   579 
 1258 4 5    5 4302   582 
 1259 4 5    5  234   582 
 1260 4 5    5  400   585 
 1261 4 5    5 4001   599 
 1262 4 5    5 3001   599 
 1263 4 5    5 1202   600 
 1264 4 5    5 1040   602 
 1265 4 5    5 2102   603 
 1266 4 5    5 2051   604 
 1267 4 5    5 2050   606 
 1268 4 5    5 2210   608 
 1269 4 5    5 2041   613 
 1270 4 5    5 3210   615 
 1271 4 5    5 2021   621 
 1272 4 5    5 5021   622 
 1273 4 5    5 1004   624 
 1274 4 5    5  140   624 
 1275 4 5    5  401   626 
 1276 4 5    5 1302   630 
 1277 4 5    5 3021   630 
 1278 4 5    5  241   638 
 1279 4 5    5  220   640 
 1280 4 5    5  520   641 
 1281 4 5    5 2022   654 
 1282 4 5    5 3052   660 
 1283 4 5    5 4042   660 
 1284 4 5    5 5042   661 
 1285 4 5    5 2042   663 
 1286 4 5    5 5011   663 
 1287 4 5    5 3212   663 
 1288 4 5    5 3312   663 
 1289 4 5    5 4212   664 
 1290 4 5    5 5312   664 
 1291 4 5    5 2312   666 
 1292 4 5    5 5015   666 
 1293 4 5    5 4412   667 
 1294 4 5    5 4011   670 
 1295 4 5    5 3013   673 
 1296 4 5    5 2112   678 
 1297 4 5    5  552   682 
 1298 4 5    5   55   684 
 1299 4 5    5 4112   686 
 1300 4 5    5 3032   686 
 1301 4 5    5  511   689 
 1302 4 5    5   53   689 
 1303 4 5    5  352   690 
 1304 4 5    5  515   692 
 1305 4 5    5  442   693 
 1306 4 5    5  342   697 
 1307 4 5    5 4014   698 
 1308 4 5    5  313   700 
 1309 4 5    5  411   702 
 1310 4 5    5   44   706 
 1311 4 5    5  232   707 
 1312 4 5    5  532   708 
 1313 4 5    5 4010   720 
 1314 4 5    5   20   720 
 1315 4 5    5   41   720 
 1316 4 5    5   15   745 
 1317 4 5    5   52   747 
 1318 4 5    5  512   751 
