##### 0123(0,2)+1245(0,1)+5632(*,*) 7 4 1765                          
//solve 0123(0,2)+1245(0,1) 7 4 1771  [count 7th mde=4 max=1771]
##### 0123(0,2)+1245(0,1)+6732(*,*) 1771 1770 time 00:06:15
##### 0123(0,2)+1245(0,1)+6731(*,*) 1770 1765 time 00:06:33