taken 0123(0,2)+1245(0,1) 7 4 1771 #
taken 0123(0,2)+1245(0,2) 7 4 1598 #
taken 0123(0,2)+1245(1,1) 7 4 1096 #
taken 0123(0,2)+1245(1,0) 7 4 722 #
solve 0123(0,2)+1245(0,0) 7 4 438 #
solve 0123(0,2)+1245(1,2) 7 4 325 #
solve 0123(0,2)+1245(0,3) 7 4 324 #
solve 0123(0,2)+1245(2,0) 7 4 309 #
solve 0123(0,2)+1245(2,1) 7 4 131 #
solve 0123(0,2)+1245(3,0) 7 4 49 #
solve 0123(0,2)+1245(1,3) 7 4 21 #
solve 0123(0,2)+1245(0,4) 7 4 16 #
solve 0123(0,2)+1245(2,2) 7 4 16 #
solve 0123(0.2)+1435(0.1) 7 4 1720 #
solve 0123(0.2)+1435(0.2) 7 4 1580 #
solve 0123(0.2)+1435(1.1) 7 4 1116 #
solve 0123(0.2)+1435(1.0) 7 4  772 #
solve 0123(0.2)+1435(0.0) 7 4  438 #
solve 0123(0.2)+1435(0.3) 7 4  353 #
solve 0123(0.2)+1435(1.2) 7 4  310 #
solve 0123(0.2)+1435(2.0) 7 4  308 #
solve 0123(0.2)+1435(2.1) 7 4  122 #
solve 0123(0.2)+1435(3.0) 7 4   44 #
solve 0123(0.2)+1435(0.4) 7 4   20 #
solve 0123(0.2)+1435(1.3) 7 4   16 #
solve 0123(0.2)+1435(2.2) 7 4   16 #
