finished 0123(0,0)+4567(1,3) e=1 th=4      1                          
//solve 0123(0.0)+4567(1.3) 6 6 5039 [count 6th mde=6 max=5039]
##### 0123(0,0)+4567(1,3)+5879(*,*) 5039    2 time 00:00:00
##### 0123(0,0)+4567(1,3)+5678(*,*)    2    1 time 00:00:00