finished 0123(0,0)+4567(1,1) e=8 th=4      8                          
//solve 0123(0.0)+4567(1.1) 6 6 5039 [count 6th mde=6 max=5039]
##### 0123(0,0)+4567(1,1)+5879(*,*) 5039   12 time 00:00:02
##### 0123(0,0)+4567(1,1)+5689(*,*)   12    8 time 00:00:02