finished 0123(0,2)+1234(0,3) e=22 th=3     2                          
//solve 0123(0.2)+1234(0.3) 6 6 5039 [count 6th mde=6 max=5039]
##### 0123(0,2)+1234(0,3)+5678(*,*) 5039   56 time 00:00:04
##### 0123(0,2)+1234(0,3)+5674(*,*)   56   49 time 00:00:04
##### 0123(0,2)+1234(0,3)+5673(*,*)   49   39 time 00:00:03
##### 0123(0,2)+1234(0,3)+5672(*,*)   39   29 time 00:00:05
##### 0123(0,2)+1234(0,3)+5671(*,*)   29   27 time 00:00:05
##### 0123(0,2)+1234(0,3)+5642(*,*)   27   22 time 00:00:02