finished 0123(0,3)+1435(0,1) e=6 th=2      6                          
//solve 0123(0.3)+1435(0.1) 6 6 5039 [count 6th mde=6 max=5039]
##### 0123(0,3)+1435(0,1)+6789(*,*) 5039   38 time 00:00:02
##### 0123(0,3)+1435(0,1)+6578(*,*)   38   29 time 00:00:04
##### 0123(0,3)+1435(0,1)+6574(*,*)   29   26 time 00:00:03
##### 0123(0,3)+1435(0,1)+6378(*,*)   26   16 time 00:00:05
##### 0123(0,3)+1435(0,1)+6371(*,*)   16   15 time 00:00:03
##### 0123(0,3)+1435(0,1)+6271(*,*)   15    9 time 00:00:01
##### 0123(0,3)+1435(0,1)+3670(*,*)    9    7 time 00:00:01
##### 0123(0,3)+1435(0,1)+2617(*,*)    7    6 time 00:00:01