finished 0123(1,1)+0245(0,0) e=8 th=2      8                          
//solve 0123(1.1)+0245(0.0) 6 6 5039 [count 6th mde=6 max=5039]
##### 0123(1,1)+0245(0,0)+6789(*,*) 5039   23 time 00:00:04
##### 0123(1,1)+0245(0,0)+6785(*,*)   23   18 time 00:00:03
##### 0123(1,1)+0245(0,0)+6783(*,*)   18   10 time 00:00:01
##### 0123(1,1)+0245(0,0)+6713(*,*)   10    8 time 00:00:00