taken 0123(0.1)+1245(0.3) 6 6 5039#
taken 0123(0.1)+1245(1.0) 6 6 5039#
taken 0123(0.1)+1245(1.1) 6 6 5039#
taken 0123(0.1)+1245(1.2) 6 6 5039#
taken 0123(0.1)+1245(2.0) 6 6 5039#
taken 0123(0.2)+1435(0.0) 6 6 5039#
taken 0123(0.2)+1435(0.3) 6 6 5039#
taken 0123(0.2)+1435(1.0) 6 6 5039#
taken 0123(0.2)+1435(1.1) 6 6 5039#
taken 0123(0.2)+1435(1.2) 6 6 5039#
taken 0123(0.2)+1435(2.0) 6 6 5039#
taken 0123(0.2)+1234(0.3) 6 6 5039#
taken 0123(0.2)+1234(1.0) 6 6 5039#
taken 0123(0.2)+1234(1.1) 6 6 5039#
taken 0123(0.2)+1234(1.2) 6 6 5039#
taken 0123(0.2)+1234(2.0) 6 6 5039#
taken 0123(0.2)+1234(2.1) 6 6 5039#
taken 0123(1.1)+0245(0.0) 6 6 5039#
taken 0123(1.1)+0245(0.1) 6 6 5039#
taken 0123(1.1)+0245(0.2) 6 6 5039#
taken 0123(1.1)+0245(0.3) 6 6 5039#
taken 0123(1.1)+0245(1.0) 6 6 5039#
taken 0123(1.1)+0245(1.1) 6 6 5039#
taken 0123(1.1)+0245(2.0) 6 6 5039#
taken 0123(1.0)+0456(0.1) 6 6 5039#
taken 0123(1.0)+0456(0.2) 6 6 5039#
taken 0123(1.0)+0456(1.0) 6 6 5039#
taken 0123(1.0)+0456(1.1) 6 6 5039#
taken 0123(0.0)+4567(0.2) 6 6 5039#
taken 0123(0.0)+4567(0.3) 6 6 5039#
taken 0123(0.0)+4567(1.1) 6 6 5039#
taken 0123(0.0)+4567(1.2) 6 6 5039#
taken 0123(0.0)+4567(1.3) 6 6 5039#
taken 0123(0.3)+1435(0.1) 6 6 5039#
taken 0123(0.3)+1435(0.2) 6 6 5039#
taken 0123(0.3)+1435(1.1) 6 6 5039#
taken 0123(1.2)+0245(0.1) 6 6 5039#
taken 0123(1.2)+0245(0.2) 6 6 5039#
taken 0123(2.0)+0245(0.1) 6 6 5039#
taken 0123(2.0)+0245(1.1) 6 6 5039#
