finished 0123(0,1)+1045(0,2) e=9 th=4      9                          
//solve 0123(0.1)+1045(0.2) 7 4   15  [count 7th mde=4 max=15]
##### 0123(0,1)+1045(0,2)+6704(*,*)   15   10 time 00:00:43
##### 0123(0,1)+1045(0,2)+4671(*,*)   10    9 time 00:00:40