finished 0123(0,2)+1435(0,2) e=0 th=4      1                          
//solve 0123(0.2)+1435(0.2) 7 4    2  [count 7th mde=4 max=2]
##### 0123(0,2)+1435(0,2)+4362(*,*)    2    1 time 00:00:11
##### 0123(0,2)+1435(0,2)+3641(*,*)    1    0 time 00:00:24