finished 0123(0,2)+1234(0,1) e=3 th=4      3                          
//solve 0123(0.2)+1234(0.1) 7 4 6  [count 7th mde=4 max=6]
##### 0123(0,2)+1234(0,1)+5602(*,*)    6    4 time 00:00:20
##### 0123(0,2)+1234(0,1)+5306(*,*)    4    3 time 00:00:15